^C:\USERS\PC\DOCUMENTS\VISUAL STUDIO 2013\PROJECTS\MAZE_\MAZE_\DEBUG\MAIN.OBJ|C:\USERS\PC\DOCUMENTS\VISUAL STUDIO 2013\PROJECTS\MAZE_\MAZE_\DEBUG\MAZE.OBJ|C:\USERS\PC\DOCUMENTS\VISUAL STUDIO 2013\PROJECTS\MAZE_\MAZE_\DEBUG\MAZE_CONSOLE.OBJ|C:\USERS\PC\DOCUMENTS\VISUAL STUDIO 2013\PROJECTS\MAZE_\MAZE_\DEBUG\PLAYER.OBJ
C:\WINDOWS\GLOBALIZATION\SORTING\SORTDEFAULT.NLS
C:\WINDOWS\SYSTEM32\NTDLL.DLL
C:\WINDOWS\SYSTEM32\KERNELBASE.DLL
C:\WINDOWS\SYSTEM32\FLTLIB.DLL
C:\WINDOWS\SYSTEM32\KERNEL32.DLL
C:\WINDOWS\SYSTEM32\GDI32.DLL
C:\WINDOWS\SYSTEM32\USER32.DLL
C:\PROGRAM FILES\WINDOWS KITS\8.1\LIB\WINV6.3\UM\X86\KERNEL32.LIB
C:\PROGRAM FILES\WINDOWS KITS\8.1\LIB\WINV6.3\UM\X86\USER32.LIB
C:\PROGRAM FILES\WINDOWS KITS\8.1\LIB\WINV6.3\UM\X86\GDI32.LIB
C:\PROGRAM FILES\WINDOWS KITS\8.1\LIB\WINV6.3\UM\X86\WINSPOOL.LIB
C:\PROGRAM FILES\WINDOWS KITS\8.1\LIB\WINV6.3\UM\X86\COMDLG32.LIB
C:\PROGRAM FILES\WINDOWS KITS\8.1\LIB\WINV6.3\UM\X86\ADVAPI32.LIB
C:\PROGRAM FILES\WINDOWS KITS\8.1\LIB\WINV6.3\UM\X86\SHELL32.LIB
C:\PROGRAM FILES\WINDOWS KITS\8.1\LIB\WINV6.3\UM\X86\OLE32.LIB
C:\PROGRAM FILES\WINDOWS KITS\8.1\LIB\WINV6.3\UM\X86\OLEAUT32.LIB
C:\PROGRAM FILES\WINDOWS KITS\8.1\LIB\WINV6.3\UM\X86\UUID.LIB
C:\PROGRAM FILES\WINDOWS KITS\8.1\LIB\WINV6.3\UM\X86\ODBC32.LIB
C:\PROGRAM FILES\WINDOWS KITS\8.1\LIB\WINV6.3\UM\X86\ODBCCP32.LIB
C:\USERS\PC\DOCUMENTS\VISUAL STUDIO 2013\PROJECTS\MAZE_\MAZE_\DEBUG\MAIN.OBJ
C:\USERS\PC\DOCUMENTS\VISUAL STUDIO 2013\PROJECTS\MAZE_\MAZE_\DEBUG\MAZE.OBJ
C:\USERS\PC\DOCUMENTS\VISUAL STUDIO 2013\PROJECTS\MAZE_\MAZE_\DEBUG\MAZE_CONSOLE.OBJ
C:\USERS\PC\DOCUMENTS\VISUAL STUDIO 2013\PROJECTS\MAZE_\MAZE_\DEBUG\PLAYER.OBJ
C:\WINDOWS\SYSTEM32\TZRES.DLL
C:\PROGRAM FILES\MICROSOFT VISUAL STUDIO 12.0\VC\LIB\MSVCPRTD.LIB
C:\PROGRAM FILES\MICROSOFT VISUAL STUDIO 12.0\VC\LIB\MSVCRTD.LIB
C:\PROGRAM FILES\MICROSOFT VISUAL STUDIO 12.0\VC\LIB\OLDNAMES.LIB
