^C:\USERS\PC\DOCUMENTS\VISUAL STUDIO 2013\PROJECTS\MAZE_\MAZE_\MAIN.CPP|C:\USERS\PC\DOCUMENTS\VISUAL STUDIO 2013\PROJECTS\MAZE_\MAZE_\MAZE.CPP|C:\USERS\PC\DOCUMENTS\VISUAL STUDIO 2013\PROJECTS\MAZE_\MAZE_\MAZE_CONSOLE.CPP|C:\USERS\PC\DOCUMENTS\VISUAL STUDIO 2013\PROJECTS\MAZE_\MAZE_\PLAYER.CPP
C:\USERS\PC\DOCUMENTS\VISUAL STUDIO 2013\PROJECTS\MAZE_\MAZE_\RELEASE\VC120.PDB
C:\USERS\PC\DOCUMENTS\VISUAL STUDIO 2013\PROJECTS\MAZE_\MAZE_\RELEASE\MAIN.OBJ
C:\USERS\PC\DOCUMENTS\VISUAL STUDIO 2013\PROJECTS\MAZE_\MAZE_\RELEASE\PLAYER.OBJ
C:\USERS\PC\DOCUMENTS\VISUAL STUDIO 2013\PROJECTS\MAZE_\MAZE_\RELEASE\MAZE_CONSOLE.OBJ
C:\USERS\PC\DOCUMENTS\VISUAL STUDIO 2013\PROJECTS\MAZE_\MAZE_\RELEASE\MAZE.OBJ
^C:\USERS\PC\DOCUMENTS\VISUAL STUDIO 2013\PROJECTS\MAZE_\MAZE_\MAZE.CPP
C:\USERS\PC\DOCUMENTS\VISUAL STUDIO 2013\PROJECTS\MAZE_\MAZE_\RELEASE\VC120.PDB
^C:\USERS\PC\DOCUMENTS\VISUAL STUDIO 2013\PROJECTS\MAZE_\MAZE_\MAZE_CONSOLE.CPP
C:\USERS\PC\DOCUMENTS\VISUAL STUDIO 2013\PROJECTS\MAZE_\MAZE_\RELEASE\VC120.PDB
^C:\USERS\PC\DOCUMENTS\VISUAL STUDIO 2013\PROJECTS\MAZE_\MAZE_\PLAYER.CPP
C:\USERS\PC\DOCUMENTS\VISUAL STUDIO 2013\PROJECTS\MAZE_\MAZE_\RELEASE\VC120.PDB
^C:\USERS\PC\DOCUMENTS\VISUAL STUDIO 2013\PROJECTS\MAZE_\MAZE_\MAIN.CPP
C:\USERS\PC\DOCUMENTS\VISUAL STUDIO 2013\PROJECTS\MAZE_\MAZE_\RELEASE\VC120.PDB
