^C:\USERS\TCONSAPO\DESKTOP\MAIN\POLAR\POLAR\DPOINT.CPP|C:\USERS\TCONSAPO\DESKTOP\MAIN\POLAR\POLAR\MAIN.CPP|C:\USERS\TCONSAPO\DESKTOP\MAIN\POLAR\POLAR\PPOINT.CPP
C:\USERS\TCONSAPO\DESKTOP\MAIN\POLAR\POLAR\DEBUG\VC120.PDB
C:\USERS\TCONSAPO\DESKTOP\MAIN\POLAR\POLAR\DEBUG\VC120.IDB
C:\USERS\TCONSAPO\DESKTOP\MAIN\POLAR\POLAR\DEBUG\DPOINT.OBJ
C:\USERS\TCONSAPO\DESKTOP\MAIN\POLAR\POLAR\DEBUG\MAIN.OBJ
C:\USERS\TCONSAPO\DESKTOP\MAIN\POLAR\POLAR\DEBUG\PPOINT.OBJ
^C:\USERS\TCONSAPO\DESKTOP\MAIN\POLAR\POLAR\DPOINT.CPP
C:\USERS\TCONSAPO\DESKTOP\MAIN\POLAR\POLAR\DEBUG\VC120.PDB
^C:\USERS\TCONSAPO\DESKTOP\MAIN\POLAR\POLAR\MAIN.CPP
C:\USERS\TCONSAPO\DESKTOP\MAIN\POLAR\POLAR\DEBUG\VC120.PDB
C:\USERS\TCONSAPO\DESKTOP\MAIN\POLAR\POLAR\DEBUG\VC120.IDB
C:\USERS\TCONSAPO\DESKTOP\MAIN\POLAR\POLAR\DEBUG\MAIN.OBJ
^C:\USERS\TCONSAPO\DESKTOP\MAIN\POLAR\POLAR\PPOINT.CPP
C:\USERS\TCONSAPO\DESKTOP\MAIN\POLAR\POLAR\DEBUG\VC120.PDB
C:\USERS\TCONSAPO\DESKTOP\MAIN\POLAR\POLAR\DEBUG\VC120.IDB
C:\USERS\TCONSAPO\DESKTOP\MAIN\POLAR\POLAR\DEBUG\PPOINT.OBJ
^C:\USERS\TCONSAPO\DESKTOP\MAIN\POLAR\POLAR\MAIN.CPP|C:\USERS\TCONSAPO\DESKTOP\MAIN\POLAR\POLAR\PPOINT.CPP
C:\USERS\TCONSAPO\DESKTOP\MAIN\POLAR\POLAR\DEBUG\VC120.PDB
C:\USERS\TCONSAPO\DESKTOP\MAIN\POLAR\POLAR\DEBUG\VC120.IDB
C:\USERS\TCONSAPO\DESKTOP\MAIN\POLAR\POLAR\DEBUG\MAIN.OBJ
^C:\USERS\PC\DESKTOP\POLAR - КОПИЯ\POLAR\DPOINT.CPP|C:\USERS\PC\DESKTOP\POLAR - КОПИЯ\POLAR\MAIN.CPP|C:\USERS\PC\DESKTOP\POLAR - КОПИЯ\POLAR\PPOINT.CPP
C:\USERS\PC\DESKTOP\POLAR - копия\POLAR\DEBUG\VC120.PDB
C:\USERS\PC\DESKTOP\POLAR - копия\POLAR\DEBUG\VC120.IDB
C:\USERS\PC\DESKTOP\POLAR - копия\POLAR\DEBUG\DPOINT.OBJ
C:\USERS\PC\DESKTOP\POLAR - копия\POLAR\DEBUG\MAIN.OBJ
C:\USERS\PC\DESKTOP\POLAR - копия\POLAR\DEBUG\PPOINT.OBJ
^C:\USERS\PC\DESKTOP\POLAR - КОПИЯ\POLAR\DPOINT.CPP
C:\USERS\PC\DESKTOP\POLAR - КОПИЯ\POLAR\DEBUG\VC120.PDB
^C:\USERS\PC\DESKTOP\POLAR - КОПИЯ\POLAR\MAIN.CPP
C:\USERS\PC\DESKTOP\POLAR - КОПИЯ\POLAR\DEBUG\VC120.PDB
C:\USERS\PC\DESKTOP\POLAR - копия\POLAR\DEBUG\VC120.IDB
C:\USERS\PC\DESKTOP\POLAR - копия\POLAR\DEBUG\MAIN.OBJ
^C:\USERS\PC\DESKTOP\POLAR - КОПИЯ\POLAR\PPOINT.CPP
C:\USERS\PC\DESKTOP\POLAR - КОПИЯ\POLAR\DEBUG\VC120.PDB
C:\USERS\PC\DESKTOP\POLAR - копия\POLAR\DEBUG\VC120.IDB
C:\USERS\PC\DESKTOP\POLAR - копия\POLAR\DEBUG\PPOINT.OBJ
^C:\USERS\PC\DESKTOP\POLAR - КОПИЯ\POLAR\MAIN.CPP|C:\USERS\PC\DESKTOP\POLAR - КОПИЯ\POLAR\PPOINT.CPP
C:\USERS\PC\DESKTOP\POLAR - копия\POLAR\DEBUG\VC120.PDB
C:\USERS\PC\DESKTOP\POLAR - копия\POLAR\DEBUG\VC120.IDB
C:\USERS\PC\DESKTOP\POLAR - копия\POLAR\DEBUG\PPOINT.OBJ
