^C:\USERS\TCONSAPO\DESKTOP\НОВАЯ ПАПКА\POLAR\POLAR\DEBUG\DPOINT.OBJ|C:\USERS\TCONSAPO\DESKTOP\НОВАЯ ПАПКА\POLAR\POLAR\DEBUG\MAIN.OBJ|C:\USERS\TCONSAPO\DESKTOP\НОВАЯ ПАПКА\POLAR\POLAR\DEBUG\PPOINT.OBJ
/OUT:"C:\USERS\TCONSAPO\DESKTOP\НОВАЯ ПАПКА\POLAR\DEBUG\POLAR.EXE" /INCREMENTAL /NOLOGO kernel32.lib user32.lib gdi32.lib winspool.lib comdlg32.lib advapi32.lib shell32.lib ole32.lib oleaut32.lib uuid.lib odbc32.lib odbccp32.lib /MANIFEST /MANIFESTUAC:"level='asInvoker' uiAccess='false'" /manifest:embed /DEBUG /PDB:"C:\USERS\TCONSAPO\DESKTOP\НОВАЯ ПАПКА\POLAR\DEBUG\POLAR.PDB" /TLBID:1 /DYNAMICBASE /NXCOMPAT /IMPLIB:"C:\USERS\TCONSAPO\DESKTOP\НОВАЯ ПАПКА\POLAR\DEBUG\POLAR.LIB" /MACHINE:X86 DEBUG\DPOINT.OBJDEBUG\MAIN.OBJDEBUG\PPOINT.OBJ
^C:\USERS\TCONSAPO\DESKTOP\MAIN\POLAR\POLAR\DEBUG\DPOINT.OBJ|C:\USERS\TCONSAPO\DESKTOP\MAIN\POLAR\POLAR\DEBUG\MAIN.OBJ|C:\USERS\TCONSAPO\DESKTOP\MAIN\POLAR\POLAR\DEBUG\PPOINT.OBJ
/OUT:"C:\USERS\TCONSAPO\DESKTOP\MAIN\POLAR\DEBUG\POLAR.EXE" /INCREMENTAL /NOLOGO kernel32.lib user32.lib gdi32.lib winspool.lib comdlg32.lib advapi32.lib shell32.lib ole32.lib oleaut32.lib uuid.lib odbc32.lib odbccp32.lib /MANIFEST /MANIFESTUAC:"level='asInvoker' uiAccess='false'" /manifest:embed /DEBUG /PDB:"C:\USERS\TCONSAPO\DESKTOP\MAIN\POLAR\DEBUG\POLAR.PDB" /TLBID:1 /DYNAMICBASE /NXCOMPAT /IMPLIB:"C:\USERS\TCONSAPO\DESKTOP\MAIN\POLAR\DEBUG\POLAR.LIB" /MACHINE:X86 DEBUG\DPOINT.OBJDEBUG\MAIN.OBJDEBUG\PPOINT.OBJ
^C:\USERS\PC\DESKTOP\POLAR - КОПИЯ\POLAR\DEBUG\DPOINT.OBJ|C:\USERS\PC\DESKTOP\POLAR - КОПИЯ\POLAR\DEBUG\MAIN.OBJ|C:\USERS\PC\DESKTOP\POLAR - КОПИЯ\POLAR\DEBUG\PPOINT.OBJ
/OUT:"C:\USERS\PC\DESKTOP\POLAR - КОПИЯ\DEBUG\POLAR.EXE" /INCREMENTAL /NOLOGO kernel32.lib user32.lib gdi32.lib winspool.lib comdlg32.lib advapi32.lib shell32.lib ole32.lib oleaut32.lib uuid.lib odbc32.lib odbccp32.lib /MANIFEST /MANIFESTUAC:"level='asInvoker' uiAccess='false'" /manifest:embed /DEBUG /PDB:"C:\USERS\PC\DESKTOP\POLAR - КОПИЯ\DEBUG\POLAR.PDB" /TLBID:1 /DYNAMICBASE /NXCOMPAT /IMPLIB:"C:\USERS\PC\DESKTOP\POLAR - КОПИЯ\DEBUG\POLAR.LIB" /MACHINE:X86 DEBUG\DPOINT.OBJDEBUG\MAIN.OBJDEBUG\PPOINT.OBJ
