^C:\USERS\PC\DESKTOP\КОНКУРС\GENERATE\MAZE.CPP
/c /Zi /nologo /W3 /WX- /sdl /O2 /Oi /Oy- /GL /D _MBCS /Gm- /EHsc /MD /GS /Gy /fp:precise /Zc:wchar_t /Zc:forScope /Fo"RELEASE\\" /Fd"RELEASE\VC120.PDB" /Gd /TP /analyze- C:\USERS\PC\DESKTOP\КОНКУРС\GENERATE\MAZE.CPP
^C:\USERS\PC\DESKTOP\КОНКУРС\GENERATE\TEST.CPP
/c /Zi /nologo /W3 /WX- /sdl /O2 /Oi /Oy- /GL /D _MBCS /Gm- /EHsc /MD /GS /Gy /fp:precise /Zc:wchar_t /Zc:forScope /Fo"RELEASE\\" /Fd"RELEASE\VC120.PDB" /Gd /TP /analyze- C:\USERS\PC\DESKTOP\КОНКУРС\GENERATE\TEST.CPP
^C:\USERS\PC\DESKTOP\ЛАБИРИНТ (КОНКУРС)\GENERATE\MAZE.CPP
/c /Zi /nologo /W3 /WX- /sdl /O2 /Oi /Oy- /GL /D _MBCS /Gm- /EHsc /MD /GS /Gy /fp:precise /Zc:wchar_t /Zc:forScope /Fo"RELEASE\\" /Fd"RELEASE\VC120.PDB" /Gd /TP /analyze- C:\USERS\PC\DESKTOP\ЛАБИРИНТ (КОНКУРС)\GENERATE\MAZE.CPP
^C:\USERS\PC\DESKTOP\ЛАБИРИНТ (КОНКУРС)\GENERATE\TEST.CPP
/c /Zi /nologo /W3 /WX- /sdl /O2 /Oi /Oy- /GL /D _MBCS /Gm- /EHsc /MD /GS /Gy /fp:precise /Zc:wchar_t /Zc:forScope /Fo"RELEASE\\" /Fd"RELEASE\VC120.PDB" /Gd /TP /analyze- C:\USERS\PC\DESKTOP\ЛАБИРИНТ (КОНКУРС)\GENERATE\TEST.CPP
