^C:\USERS\PC\DESKTOP\ЛАБИРИНТ (КОНКУРС)\GENERATE\MAZE.CPP|C:\USERS\PC\DESKTOP\ЛАБИРИНТ (КОНКУРС)\GENERATE\TEST.CPP
C:\USERS\PC\DESKTOP\лабиринт (конкурс)\GENERATE\RELEASE\VC120.PDB
C:\USERS\PC\DESKTOP\Лабиринт (Конкурс)\GENERATE\RELEASE\MAZE.OBJ
^C:\USERS\PC\DESKTOP\ЛАБИРИНТ (КОНКУРС)\GENERATE\MAZE.CPP
C:\USERS\PC\DESKTOP\ЛАБИРИНТ (КОНКУРС)\GENERATE\RELEASE\MAZE.OBJ
^C:\USERS\PC\DESKTOP\ЛАБИРИНТ (КОНКУРС)\GENERATE\TEST.CPP
C:\USERS\PC\DESKTOP\лабиринт (конкурс)\GENERATE\RELEASE\VC120.PDB
C:\USERS\PC\DESKTOP\Лабиринт (Конкурс)\GENERATE\RELEASE\TEST.OBJ
