^C:\USERS\PC\DESKTOP\ЛАБИРИНТ (КОНКУРС)\GENERATE\RELEASE\MAZE.OBJ|C:\USERS\PC\DESKTOP\ЛАБИРИНТ (КОНКУРС)\GENERATE\RELEASE\TEST.OBJ
C:\USERS\PC\DESKTOP\Лабиринт (Конкурс)\RELEASE\GENERATE.EXE
C:\USERS\PC\DESKTOP\ЛАБИРИНТ (КОНКУРС)\RELEASE\GENERATE.PDB
